1. '4' == 4 ? puts("TRUE") : puts("FALSE") #FALSE
2.
	 x = 2
   if ((x * 3) / 2) == (4 + 4 - x - 3)
     puts "Did you get it right?"
   else
     puts "Did you?"
   end

   # Did you get it right?

3. 
	 y = 9
   x = 10
   if (x + 1) <= (y)
     puts "Alright." #false
   elsif (x + 1) >= (y)
     puts "Alright now!" #true
   elsif (y + 1) == x
     puts "ALRIGHT NOW!"
   else
     puts "Alrighty!"
   end

   # Alright now!